"GivenName","SurName","UserPrincipalName","DisplayName"
"Stein Henrik","Førde","stein.h.forde@digsec.onmicrosoft.com","Stein Henrik Førde"
"Silje Cathrine","Årdal","silje.c.ardal@digsec.onmicrosoft.com","Silje Cathrine Årdal"
"Frank Ove","Færesvåg","frank.o.feresvag@digsec.onmicrosoft.com","Frank Ove Færesvåg"
"Mia","Olsen","mia.olsen@digsec.onmicrosoft.com","Mia Olsen"
"Kari Margrethe","Solvågshaug","kari.m.solvagshaug@digsec.onmicrosoft.com","Kari Margrethe Solvågshaug"
